{
  "b":"https://www.bing.com/search?q=%s",
  "n":"https://n.cn/search/?q=%s",
  "bds":"https://chat.baidu.com/deepseek?word=%s",
  "bdic":"http://cn.bing.com/dict/search?q=%s", "ki":"https://kimi.moonshot.cn/_prefill_chat?force_search=true&send_immediately=true&prefill_prompt=%s",
  "qw":"i:0/js/uweb2ta.js:https://chat.qwenlm.ai#uweb=%s",
  "ms":"https://metaso.cn?q=%s",
  "ds":"i:0/js/uweb2ta.js:https://metaso.cn/#uweb=%s",
  "df":"https://www.deepfind.co/?q=%s",
  "ta":"https://thinkany.so/search?q=%s",
  "ks":"https://kaisouai.com?q=%s",
  "zd":"https://zhida.zhihu.com/?q=%s",
  "exa":"https://exa.ai/search?c=all&q=%s",
  "andi":"https://andisearch.com/?q=%s",
  "ph":"https://phind-ai.com/search?q=%s",
  "gf":"https://greasyfork.org/en/scripts?filter_locale=0&sort=updated&q=%s",
  "repo":"https://www.awesome-repositories.com/s/results-with-ai/%s",
  "you":"https://you.com/search?tbm=youchat&q=%s",
  "p":"https://www.perplexity.ai/?q=%s",
  "brave":"https://search.brave.com/search?q=%s",
  "g":"https://google.com/search?q=%s",
  "git":"https://github.com/search?type=Repositories&q=%s",
  "360":"https://so.360.com?q=%s",
  "tg":"i:0/js/uweb2edit.js:https://tiangong.cn#uweb=%3Cp%3E%s%3C/p%3E",
  "cg":"i:0/js/s2ta.js:https://chatglm.cn/main/detail?%s",
  "miku":"i:0/js/s2ta.js:https://www.hellomiku.com?%s",
  "fl":"https://felo.ai/search?q=%s",
  "bg":"https://bagoodex.io/search?q=%s",
  "bc":"i:0/js/uweb2ta.js:https://www.baichuan-ai.com/chat#uweb=%s",
  "am":"i:0/js/uweb2ta.js:https://www.askmanyai.cn/chat#uweb=%s",
  "s1":"i:0/js/uweb2input.js:https://www.sou100.com#uweb=%s",
  "xa":"https://www.xanswer.com/search?q=%s",
  "dw":"i:0/js/uweb2edit.js:https://beta.daiwu.cn#uweb=<p>%s</p>",
  "dev":"i:0/js/uweb2edit.js:https://devv.ai#uweb=<p>%s</p>",
  "dai":"i:0/js/uweb2ta.js:https://duckduckgo.com?ia=chat&q=h#uweb=%s",
  "dk":"i:0/js/uweb2ta.js:https://y.demo.wvusd.homes/https://duckduckgo.com?ia=chat&q=h#uweb=%s",
  "wa":"https://www.wolframalpha.com/input?i=%s",
  "yw":"i:q:bjs navigator.clipboard.writeText(`%s`)\nhttps://yuewen.cn/chats/new",
  "bot":"i:q:bjs navigator.clipboard.writeText(`%s`)\nhttps://bot.360.com",
  "zdm":"http://search.smzdm.com/?c=youhui&s=%s",
  "android":"http://cn.bing.com/search?q=site:developer.android.google.cn/reference+%s",
  "bd":"https://baidu.com/s?wd=%s"
}
